"AddonInfo"
{
	"name"				"MK Modules"
	"version"			"0.1.0"
	"up_date"			"00/00/00"
	"author_name"			"[MK] Madkiller Max"
	"author_email"			"madkillermax@outlook.com"
	"author_url"			"http://www.mk-servers.com"
	"info"				"MK Advanced Modules"
	"override"			"0"
}
